<?xml version="1.0" encoding="UTF-8"?>
<svg width="44px" height="32px" viewBox="0 0 44 32" version="1.1" xmlns="http://www.w3.org/2000/svg" xmlns:xlink="http://www.w3.org/1999/xlink">
    <!-- Generator: Sketch 50.2 (55047) - http://www.bohemiancoding.com/sketch -->
    <title>X</title>
    <desc>Created with Sketch.</desc>
    <defs></defs>
    <g id="X" stroke="none" stroke-width="1" fill="none" fill-rule="evenodd">
        <path d="M0.19680229,5.97310634 L44.7239576,21.590571 C45.6707918,21.9226639 46.2017933,22.9282619 45.9420982,23.897457 L45.9420982,23.897457 C45.7063525,24.7772722 44.8020117,25.2993936 43.9221965,25.0636478 C43.8820816,25.0528991 43.8423871,25.0406389 43.8031977,25.0268937 L-0.723957593,9.409429 C-1.67079182,9.07733615 -2.20179327,8.07173811 -1.94209822,7.10254298 L-1.94209822,7.10254298 C-1.70635246,6.22272783 -0.802011655,5.70060642 0.0778035005,5.93635218 C0.117918373,5.94710093 0.157612933,5.95936105 0.19680229,5.97310634 Z" id="Rectangle-2-Copy" fill="#FFFFFF" transform="translate(22.000000, 15.500000) scale(-1, 1) rotate(-345.000000) translate(-22.000000, -15.500000) "></path>
        <path d="M0.19680229,5.97310634 L44.7239576,21.590571 C45.6707918,21.9226639 46.2017933,22.9282619 45.9420982,23.897457 L45.9420982,23.897457 C45.7063525,24.7772722 44.8020117,25.2993936 43.9221965,25.0636478 C43.8820816,25.0528991 43.8423871,25.0406389 43.8031977,25.0268937 L-0.723957593,9.409429 C-1.67079182,9.07733615 -2.20179327,8.07173811 -1.94209822,7.10254298 L-1.94209822,7.10254298 C-1.70635246,6.22272783 -0.802011655,5.70060642 0.0778035005,5.93635218 C0.117918373,5.94710093 0.157612933,5.95936105 0.19680229,5.97310634 Z" id="Rectangle-2-Copy" fill="#FFFFFF" transform="translate(22.000000, 15.500000) rotate(-345.000000) translate(-22.000000, -15.500000) "></path>
    </g>
</svg>