<?xml version="1.0" encoding="UTF-8"?>
<svg width="39px" height="47px" viewBox="0 0 39 47" version="1.1" xmlns="http://www.w3.org/2000/svg" xmlns:xlink="http://www.w3.org/1999/xlink">
    <!-- Generator: Sketch 51 (57462) - http://www.bohemiancoding.com/sketch -->
    <title>Polygon Copy 25</title>
    <desc>Created with Sketch.</desc>
    <defs></defs>
    <g id="mobile" stroke="none" stroke-width="1" fill="none" fill-rule="evenodd">
        <g id="Trading-challenge-mobile" transform="translate(-38.000000, -1496.000000)">
            <rect fill="#343434" x="0" y="0" width="576" height="2002"></rect>
            <g id="Group" transform="translate(39.000000, 1498.000000)" stroke="#4CCEAD" stroke-width="2">
                <polygon id="Polygon-Copy-25" transform="translate(18.186533, 21.500000) scale(-1, -1) rotate(-360.000000) translate(-18.186533, -21.500000) " points="18.1865335 0 36.373067 10.75 36.373067 32.25 18.1865335 43 -5.32907052e-14 32.25 -6.52811138e-14 10.75"></polygon>
            </g>
        </g>
    </g>
</svg>