<?xml version="1.0" encoding="UTF-8"?>
<svg width="110px" height="110px" viewBox="0 0 110 110" version="1.1" xmlns="http://www.w3.org/2000/svg" xmlns:xlink="http://www.w3.org/1999/xlink">
    <!-- Generator: Sketch 51.1 (57501) - http://www.bohemiancoding.com/sketch -->
    <title>TG Community</title>
    <desc>Created with Sketch.</desc>
    <defs>
        <path d="M95.298,2.609 L4.89,40.805 C4.89,40.805 0.359,42.363 0.687,45.223 C1.018,48.083 4.717,49.426 4.717,49.426 L28.885,57.577 L43.246,64.505 C52.888,71.893 68.876,82.468 79.87,89.893 C80.415,90.261 81.198,90.636 81.787,90.828 C83.266,91.312 84.615,91.577 85.797,91.577 C90,91.577 90.652,85.733 90.79,84.954 C92.011,78.13 97.984,51.815 108.708,6.01 C108.708,2.923 106.537,0.833 102.613,0.833 C100.612,0.833 98.155,1.377 95.298,2.609 Z" id="path-1"></path>
        <polygon id="path-3" points="7.582 0.833 7.582 8.381 0 8.381 0 10.299 0 12.05 0 13.277 7.582 13.277 7.582 20.834 12.485 20.834 12.485 13.277 20.068 13.277 20.068 8.381 12.485 8.381 12.485 0.833"></polygon>
        <path d="M95.298,2.609 L4.89,40.805 C4.89,40.805 0.359,42.363 0.687,45.223 C1.018,48.083 4.717,49.426 4.717,49.426 L28.885,57.577 L43.246,64.505 C52.888,71.893 68.876,82.468 79.87,89.893 C80.415,90.261 81.198,90.636 81.787,90.828 C83.266,91.312 84.615,91.577 85.797,91.577 C90,91.577 90.652,85.733 90.79,84.954 C92.011,78.13 97.984,51.815 108.708,6.01 C108.708,2.923 106.537,0.833 102.613,0.833 C100.612,0.833 98.155,1.377 95.298,2.609 Z" id="path-5"></path>
        <polygon id="path-7" points="7.582 0.833 7.582 8.381 0 8.381 0 10.299 0 12.05 0 13.277 7.582 13.277 7.582 20.834 12.485 20.834 12.485 13.277 20.068 13.277 20.068 8.381 12.485 8.381 12.485 0.833"></polygon>
    </defs>
    <g id="TG-Community" stroke="none" stroke-width="1" fill="none" fill-rule="evenodd">
        <g id="Group-8" transform="translate(1.000000, 0.000000)">
            <g id="Group-65" transform="translate(0.000000, 0.333000)">
                <mask id="mask-2" fill="white">
                    <use xlink:href="#path-1"></use>
                </mask>
                <g id="Clip-64"></g>
                <polygon id="Fill-63" fill="#00C884" mask="url(#mask-2)" points="-4.33 96.578 113.709 96.578 113.709 -4.166 -4.33 -4.166"></polygon>
            </g>
            <g id="Group-76" transform="translate(1.000000, 19.333000)" fill="#00C884">
                <path d="M20.4998,48.8335 C9.1958,48.8335 -0.0002,58.0295 -0.0002,69.3335 C-0.0002,80.6375 9.1958,89.8335 20.4998,89.8335 C31.8038,89.8335 40.9998,80.6375 40.9998,69.3335 C40.9998,58.0295 31.8038,48.8335 20.4998,48.8335" id="Fill-66"></path>
                <path d="M41.4285,56.6079 C41.4305,56.6119 41.4335,56.6159 41.4355,56.6199 L43.0685,44.9979 L43.0545,44.9869 L41.4285,56.6079 Z" id="Fill-68"></path>
                <path d="M89.889,0.7353 C89.002,-0.3657 86.806,1.2093 86.806,1.2093 L27.321,38.3413 C27.321,38.3413 28.624,42.0203 30.361,46.9133 C34.963,48.9443 38.828,52.3483 41.429,56.6083 L43.055,44.9873 L43.068,44.9973 L43.076,44.9473 C43.076,44.9473 87.036,4.8533 88.854,3.2233 C90.702,1.5633 89.973,0.8393 89.889,0.7353" id="Fill-70"></path>
                <path d="M44.9847,68.7241 L57.8507,56.6341 L43.0677,44.9971 L41.4357,56.6201 C43.5967,60.1651 44.8757,64.3021 44.9847,68.7241" id="Fill-72"></path>
                <path d="M20.4998,89.8335 C9.1958,89.8335 -0.0002,80.6375 -0.0002,69.3335 C-0.0002,58.0295 9.1958,48.8335 20.4998,48.8335 C31.8038,48.8335 40.9998,58.0295 40.9998,69.3335 C40.9998,80.6375 31.8038,89.8335 20.4998,89.8335" id="Fill-74"></path>
            </g>
            <g id="Group-79" transform="translate(11.000000, 78.333000)">
                <mask id="mask-4" fill="white">
                    <use xlink:href="#path-3"></use>
                </mask>
                <g id="Clip-78"></g>
                <polygon id="Fill-77" fill="#00C884" mask="url(#mask-4)" points="-5 25.833 25.068 25.833 25.068 -4.167 -5 -4.167"></polygon>
            </g>
            <g id="Group-82" transform="translate(0.000000, 0.333000)">
                <mask id="mask-6" fill="white">
                    <use xlink:href="#path-5"></use>
                </mask>
                <g id="Clip-81"></g>
                <polygon id="Fill-80" fill="#008797" mask="url(#mask-6)" points="-4.33 96.578 113.709 96.578 113.709 -4.166 -4.33 -4.166"></polygon>
            </g>
            <g id="Group-89" transform="translate(1.000000, 19.333000)">
                <path d="M89.889,0.7353 C89.002,-0.3657 86.806,1.2093 86.806,1.2093 L27.321,38.3413 C27.321,38.3413 28.624,42.0203 30.361,46.9133 C34.963,48.9443 38.828,52.3483 41.429,56.6083 L43.055,44.9873 L43.068,44.9973 L43.076,44.9473 C43.076,44.9473 87.036,4.8533 88.854,3.2233 C90.702,1.5633 89.973,0.8393 89.889,0.7353" id="Fill-83" fill="#005971"></path>
                <path d="M44.9847,68.7241 L57.8507,56.6341 L43.0677,44.9971 L41.4357,56.6201 C43.5967,60.1651 44.8757,64.3021 44.9847,68.7241" id="Fill-85" fill="#B2DDDF"></path>
                <path d="M20.4998,89.8335 C9.1958,89.8335 -0.0002,80.6375 -0.0002,69.3335 C-0.0002,58.0295 9.1958,48.8335 20.4998,48.8335 C31.8038,48.8335 40.9998,58.0295 40.9998,69.3335 C40.9998,80.6375 31.8038,89.8335 20.4998,89.8335" id="Fill-87" fill="#00C884"></path>
            </g>
            <g id="Group-92" transform="translate(11.000000, 78.333000)">
                <mask id="mask-8" fill="white">
                    <use xlink:href="#path-7"></use>
                </mask>
                <g id="Clip-91"></g>
                <polygon id="Fill-90" fill="#005971" mask="url(#mask-8)" points="-5 25.833 25.068 25.833 25.068 -4.167 -5 -4.167"></polygon>
            </g>
        </g>
    </g>
</svg>