<?xml version="1.0" encoding="UTF-8"?>
<svg width="111px" height="149px" viewBox="0 0 111 149" version="1.1" xmlns="http://www.w3.org/2000/svg" xmlns:xlink="http://www.w3.org/1999/xlink">
    <!-- Generator: Sketch 51.1 (57501) - http://www.bohemiancoding.com/sketch -->
    <title>one</title>
    <desc>Created with Sketch.</desc>
    <defs></defs>
    <g id="desktop" stroke="none" stroke-width="1" fill="none" fill-rule="evenodd">
        <g id="main-page-copy-6" transform="translate(-405.000000, -860.000000)">
            <g id="one" transform="translate(405.000000, 860.000000)">
                <polygon id="1" fill-opacity="0.08" fill="#00DAC3" points="110.502619 0 110.502619 148.874827 80.1932671 148.874827 80.1932671 27.6481822 54 27.6481822 54 0"></polygon>
                <g transform="translate(0.000000, 58.000000)">
                    <g>
                        <path d="M73.7096301,47.5508219 L77.6223862,78.5323374 C77.8299867,80.1761343 76.6657195,81.6769883 75.0219226,81.8845888 C75.0205297,81.8847647 75.0191366,81.8849396 75.0177434,81.8851136 L13.7271855,89.5381902 C12.083136,89.7434778 10.5839407,88.5771606 10.3786005,86.9331177 L0.96734443,11.559797 C0.762140451,9.91684515 1.92676389,8.41827761 3.56951583,8.21147907 L64.5207428,0.534907183 C66.1646229,0.32796663 67.6650094,1.49283625 67.87195,3.1367163 C67.8719815,3.13696704 67.872013,3.13721778 67.8720446,3.13746853 L71.1251127,29.0378536" id="Stroke-87" fill="#008797"></path>
                        <path d="M88.4146566,4.73870221 L86.0127201,3.7043319 C84.4910046,3.04898419 82.7261448,3.75129685 82.0707707,5.27300096 L80.8520548,8.10258904 L80.4550685,7.9299863 L53.0021139,71.6543595 L54.5603015,77.8767929 C54.6944593,78.4125355 55.2375208,78.7380844 55.7732634,78.6039267 C55.8696852,78.5797812 55.9619683,78.5413948 56.0470692,78.4900334 L61.7483583,75.0491018 L89.2442466,11.7173836 L88.7646575,11.5102603 L89.9833734,8.6806722 C90.6387556,7.15894941 89.9364478,5.39405715 88.414725,4.73867499 C88.414709,4.73866813 88.4146931,4.73866127 88.4146772,4.7386544 Z" id="Path" fill="#005971"></path>
                        <path d="M12.2385205,28.0125616 L61.3316712,21.8802329" id="Stroke-91" stroke="#B2DDDF" stroke-width="3" stroke-linecap="round"></path>
                        <path d="M12.9326301,33.5701233 L62.0257808,27.4377945" id="Stroke-93" stroke="#B2DDDF" stroke-width="3" stroke-linecap="round"></path>
                        <path d="M13.6267397,39.1276849 L62.7198904,32.996589" id="Stroke-95" stroke="#B2DDDF" stroke-width="3" stroke-linecap="round"></path>
                        <polyline id="Stroke-97" stroke="#B2DDDF" stroke-width="3" stroke-linecap="round" points="14.7945205 44.7507276 36.1905813 42.0046644 36.8673247 41.9178082"></polyline>
                        <path d="M59,70.1069863 L83.0460274,14 L59,70.1069863 Z" id="Stroke-85" stroke="#B2DDDF" stroke-width="3" stroke-linecap="round" stroke-linejoin="round" stroke-dasharray="1"></path>
                    </g>
                </g>
            </g>
        </g>
    </g>
</svg>